…
``` r
# ggsave(p1, filename = paste0(plotdir,"/ggplot.png"), dpi = 100, type = "cairo")
```

So what is the forecast probability of this event occurring? It is the amount of forecast above the threshold/total amount of forecast

``` r
by_ld_yr <- df %>% group_by(Leadtime, Year)
count_by_ld_yr <- by_ld_yr %>% tally(V1>quantile(df$V1,0.8))
count_by_ld_yr
```

    ## # A tibble: 140 x 3
    ## # Groups:   Leadtime [4]
    ##    Leadtime Year      n
    ##    <fct>    <fct> <int>
    ##  1 2        1981      5
    ##  2 2        1982      5
    ##  3 2        1983      6
    ##  4 2        1984      7
    ##  5 2        1985      6
    ##  6 2        1986      4
    ##  7 2        1987      7
    ##  8 2        1988      6
    ##  9 2        1989      5
    ## 10 2        1990      5
    ## # … with 130 more rows
…
